<svg xmlns="http://www.w3.org/2000/svg" xmlns:xlink="http://www.w3.org/1999/xlink" preserveAspectRatio="xMidYMid" width="10" height="16" viewBox="0 0 10 16">
  <defs>
    <style>
      .cls-1 {
        fill: #0cdfbb;
        fill-rule: evenodd;
      }
    </style>
  </defs>
  <path d="M1.666,16.000 L10.000,8.000 L1.666,0.000 L-0.000,1.600 L6.667,8.000 L-0.000,14.400 L1.666,16.000 Z" class="cls-1"/>
</svg>
