<svg xmlns="http://www.w3.org/2000/svg" xmlns:xlink="http://www.w3.org/1999/xlink" preserveAspectRatio="xMidYMid" width="21" height="30" viewBox="0 0 21 30">
  <defs>
    <style>
      .cls-1 {
        fill: #fff;
        fill-rule: evenodd;
      }
    </style>
  </defs>
  <path d="M21.000,29.999 L7.000,30.000 L7.000,22.000 L21.000,22.000 L21.000,29.999 ZM-0.000,22.000 L-0.000,0.000 L7.000,0.000 L21.000,0.000 L21.000,8.000 L7.000,8.000 L7.000,12.000 L18.000,12.000 L18.000,18.000 L7.000,18.000 L7.000,22.000 L-0.000,22.000 Z" class="cls-1"/>
</svg>
