<svg xmlns="http://www.w3.org/2000/svg" xmlns:xlink="http://www.w3.org/1999/xlink" preserveAspectRatio="xMidYMid" width="13" height="13" viewBox="0 0 13 13">
  <defs>
    <style>
      .cls-1 {
        fill: #fff;
        fill-rule: evenodd;
      }
    </style>
  </defs>
  <path d="M6.500,-0.000 C2.910,-0.000 -0.000,2.910 -0.000,6.500 C-0.000,9.254 1.713,11.606 4.131,12.553 C4.074,12.038 4.023,11.249 4.154,10.688 C4.272,10.181 4.916,7.457 4.916,7.457 C4.916,7.457 4.721,7.068 4.721,6.492 C4.721,5.588 5.245,4.913 5.898,4.913 C6.452,4.913 6.720,5.330 6.720,5.829 C6.720,6.387 6.365,7.221 6.182,7.994 C6.029,8.640 6.506,9.168 7.144,9.168 C8.300,9.168 9.188,7.950 9.188,6.191 C9.188,4.635 8.069,3.547 6.472,3.547 C4.623,3.547 3.537,4.934 3.537,6.368 C3.537,6.926 3.753,7.526 4.021,7.851 C4.074,7.916 4.082,7.972 4.066,8.037 C4.017,8.243 3.907,8.684 3.886,8.775 C3.857,8.894 3.791,8.919 3.668,8.862 C2.856,8.484 2.349,7.297 2.349,6.344 C2.349,4.293 3.839,2.410 6.644,2.410 C8.899,2.410 10.651,4.017 10.651,6.164 C10.651,8.405 9.238,10.207 7.278,10.207 C6.619,10.207 6.000,9.865 5.788,9.461 C5.788,9.461 5.462,10.702 5.383,11.006 C5.236,11.571 4.840,12.279 4.575,12.710 C5.183,12.899 5.830,13.000 6.500,13.000 C10.090,13.000 13.000,10.090 13.000,6.500 C13.000,2.910 10.090,-0.000 6.500,-0.000 Z" class="cls-1"/>
</svg>
