<svg xmlns="http://www.w3.org/2000/svg" xmlns:xlink="http://www.w3.org/1999/xlink" preserveAspectRatio="xMidYMid" width="15.094" height="12.75" viewBox="0 0 15.094 12.75">
  <defs>
    <style>
      .cls-1 {
        fill: #fff;
        fill-rule: evenodd;
      }
    </style>
  </defs>
  <path d="M15.082,2.948 C15.014,4.384 13.989,6.349 12.005,8.843 C9.954,11.448 8.218,12.751 6.799,12.751 C5.919,12.751 5.175,11.957 4.567,10.371 C4.161,8.916 3.755,7.461 3.349,6.008 C2.898,4.421 2.414,3.627 1.896,3.627 C1.783,3.627 1.388,3.861 0.712,4.323 L0.002,3.428 C0.747,2.789 1.481,2.150 2.204,1.509 C3.197,0.671 3.942,0.230 4.439,0.186 C5.614,0.076 6.336,0.860 6.608,2.538 C6.900,4.349 7.103,5.477 7.217,5.917 C7.556,7.421 7.928,8.171 8.335,8.171 C8.651,8.171 9.125,7.683 9.758,6.708 C10.389,5.734 10.728,4.992 10.773,4.483 C10.863,3.641 10.525,3.220 9.758,3.220 C9.396,3.220 9.024,3.300 8.641,3.462 C9.382,1.088 10.799,-0.065 12.890,0.001 C14.440,0.046 15.171,1.028 15.082,2.948 Z" class="cls-1"/>
</svg>
